Sosiaalisen median aktiivikäyttö ja syntyvyys
…
Aineiston perusteella ei voi tehdä kausaalisia päätelmiä, ainostaan
assosiatiivisuutta koskevia. Tämä tietenkin rajoittaa
tulkintamahdollisuuksia.

Tarkoituksena on avoimen, toistettavan tutkimuksen hengessä näyttää
täsmällisesti mitä on tehty. Tästä syystä alkuperäinen aineisto (myös
tämä työkirja koodeineen, Rmd-muotoisena; data Rdata-muodossa) on
kokonaisuudessaan saatavissa osoitteesta https://github.com/ajtanskanen/Syntyvyyden-tekij-t

## # A tibble: 33 × 71
##    vuosi hedelmallisyysluku pienituloisuus_miehet_18_29 pienituloisuus_naiset_…¹
##    <dbl>              <dbl>                       <dbl>                    <dbl>
##  1  1990               1.78                         7.9                     11.4
##  2  1991               1.79                        10.9                     13.2
##  3  1992               1.85                        13.5                     13.9
##  4  1993               1.81                        12.7                     13.8
##  5  1994               1.85                        14.2                     16.6
##  6  1995               1.81                        15.9                     17.1
##  7  1996               1.76                        19.3                     20.3
##  8  1997               1.75                        18.2                     21.5
##  9  1998               1.7                         17.9                     22.4
## 10  1999               1.73                        18.2                     23.1
## # ℹ 23 more rows
## # ℹ abbreviated name: ¹​pienituloisuus_naiset_18_29
## # ℹ 67 more variables: lapsikuolleisuus <dbl>, synnyttajien_keskiika <dbl>,
## #   sisempikaupunki <dbl>, ulompikaupunki <dbl>, kehyskaupunki <dbl>,
## #   maaseudulla <dbl>, avioituvuus_naiset_30_34 <dbl>,
## #   avioituvuus_naiset_25_29 <dbl>, eronneisuus_25_29 <dbl>,
## #   eronneisuus_30_34 <dbl>, kolmasaste_miehet_25_29 <dbl>, …
…
Pyritään sitten arvioimaan miten hedelmällisyysluku kehittyy, mikäli
10 viime vuoden trendi jatkuisi näiden neljän tekijän osalta. Jatketaan
trendiä lineaarisesti avioituvuudelle, kaupungistumiselle ja aktiivisten
somen käyttäjien osuudelle. Muut tekijät pidetään vakiona.

## # A tibble: 41 × 71
##    vuosi hedelmallisyysluku pienituloisuus_miehet_18_29 pienituloisuus_naiset_…¹
##    <dbl>              <dbl>                       <dbl>                    <dbl>
##  1  1990               1.78                         7.9                     11.4
##  2  1991               1.79                        10.9                     13.2
##  3  1992               1.85                        13.5                     13.9
##  4  1993               1.81                        12.7                     13.8
##  5  1994               1.85                        14.2                     16.6
##  6  1995               1.81                        15.9                     17.1
##  7  1996               1.76                        19.3                     20.3
##  8  1997               1.75                        18.2                     21.5
##  9  1998               1.7                         17.9                     22.4
## 10  1999               1.73                        18.2                     23.1
## # ℹ 31 more rows
## # ℹ abbreviated name: ¹​pienituloisuus_naiset_18_29
## # ℹ 67 more variables: lapsikuolleisuus <dbl>, synnyttajien_keskiika <dbl>,
## #   sisempikaupunki <dbl>, ulompikaupunki <dbl>, kehyskaupunki <dbl>,
## #   maaseudulla <dbl>, avioituvuus_naiset_30_34 <dbl>,
## #   avioituvuus_naiset_25_29 <dbl>, eronneisuus_25_29 <dbl>,
## #   eronneisuus_30_34 <dbl>, kolmasaste_miehet_25_29 <dbl>, …
…
