Sosiaalisen median aktiivikäyttö ja syntyvyys
…
## NULL

## # A tibble: 41 × 20
##    vuosi alypuhelin some_25_34 some_35_44 avioituvuus_25_29 avioituvuus_30_34
##    <dbl>      <dbl>      <dbl>      <dbl>             <dbl>             <dbl>
##  1  1990          0          0          0              87.5              51.4
##  2  1991          0          0          0              86                50.5
##  3  1992          0          0          0              81.1              49.5
##  4  1993          0          0          0              84.8              53.6
##  5  1994          0          0          0              84.1              54.2
##  6  1995          0          0          0              78.5              52.6
##  7  1996          0          0          0              78.5              55.4
##  8  1997          0          0          0              75.5              51.1
##  9  1998          0          0          0              74.8              52.7
## 10  1999          0          0          0              74.4              53  
## # ℹ 31 more rows
## # ℹ 14 more variables: synnyttajien_keskiika <dbl>, sisempikaupunki <dbl>,
## #   ulompikaupunki <dbl>, kehyskaupunki <dbl>, maaseudulla <dbl>,
## #   avioituvuus_naiset_25_29_lag1 <dbl>, avioituvuus_naiset_30_34_lag1 <dbl>,
## #   alypuhelin_lag1 <dbl>, some_25_34_lag1 <dbl>, some_35_44_lag1 <dbl>,
## #   dummy2021 <dbl>, tfr_tk <dbl>, hedelmallisyysluku <dbl>,
## #   hedelmallisyysluku_lag1 <dbl>
…
