Syntyvyysennuste 2023-2030
…
Aineiston perusteella ei voi tehdä kausaalisia päätelmiä, ainostaan
assosiatiivisuutta koskevia. Tämä tietenkin rajoittaa
tulkintamahdollisuuksia.

Tarkoituksena on avoimen, toistettavan tutkimuksen hengessä näyttää
täsmällisesti mitä on tehty. Tästä syystä alkuperäinen aineisto (myös
tämä työkirja koodeineen, Rmd-muotoisena; data Rdata-muodossa) on
kokonaisuudessaan saatavissa osoitteesta https://github.com/ajtanskanen/Syntyvyyden-tekij-t

## # A tibble: 42 × 82
##     ...1 vuosi syntyneita hedelmallisyysluku tfr_lin tyollisyysaste_miehet_15_24
##    <dbl> <dbl>      <dbl>              <dbl>   <dbl>                       <dbl>
##  1     1  1989      63348               1.71    1.71                        53.7
##  2     2  1990      65549               1.79    1.79                        52  
##  3     3  1991      65395               1.8     1.8                         43  
##  4     4  1992      66731               1.85    1.85                        33.9
##  5     5  1993      64826               1.81    1.81                        29.3
##  6     6  1994      65231               1.85    1.85                        27.3
##  7     7  1995      63067               1.81    1.81                        29.9
##  8     8  1996      60723               1.76    1.76                        30.2
##  9     9  1997      59329               1.75    1.75                        34  
## 10    10  1998      57108               1.71    1.71                        36.1
## # ℹ 32 more rows
## # ℹ 76 more variables: tyollisyysaste_naiset_15_24 <dbl>,
## #   naisten_lkm_15_19 <dbl>, naisten_lkm_20_24 <dbl>, naisten_lkm_25_29 <dbl>,
## #   naisten_lkm_30_34 <dbl>, naisten_lkm_35_39 <dbl>, naisten_lkm_40_45 <dbl>,
## #   naisten_lkm_45_49 <dbl>, naisten_lkm_15_49 <dbl>, naisten_lkm_24_39 <dbl>,
## #   pienituloisuus_0_17 <dbl>, pienituloisuus_18_24 <dbl>,
## #   pienituloisuus_25_34 <dbl>, pienituloisuus_35_49 <dbl>, …
…
