Sosiaalisen median aktiivikäyttö ja syntyvyys
…
Mallin ennuste 2018 kerätyn datan (aineisto 2017 ja aiemmin)
perusteella vuodelle 2022 oli 1,326819, kun toteuma oli 1,31. Ennuste
oli melko hyvä jälkeenpäin arvioituna. Lineaarisesti
kokonaishedelmällisyysluvun trendiä jatkamalla tulos olisi ollut 1,09
(1v trendimuutos) tai 1,19 (5v trendimuutos), joka olisi ollut
merkittävästi huonompi tulos.

Vanha ennuste uudella datalla 2023

Päivitetään ennuste vuonna 2023 kerätyllä datalla, joka loppuu
vuoteen 2021. Sovitteen hyvyys kertoo siitä, miten hyvin ennuste datasta
meni kohdilleen.

## # A tibble: 41 × 80
##    vuosi syntyneita hedelmallisyysluku tyollisyysaste_miehet_15_24
##    <dbl>      <dbl>              <dbl>                       <dbl>
##  1  1990      65549               1.79                        52  
##  2  1991      65395               1.8                         43  
##  3  1992      66731               1.85                        33.9
##  4  1993      64826               1.81                        29.3
##  5  1994      65231               1.85                        27.3
##  6  1995      63067               1.81                        29.9
##  7  1996      60723               1.76                        30.2
##  8  1997      59329               1.75                        34  
##  9  1998      57108               1.71                        36.1
## 10  1999      57574               1.73                        39.3
## # ℹ 31 more rows
## # ℹ 76 more variables: tyollisyysaste_naiset_15_24 <dbl>,
## #   naisten_lkm_15_19 <dbl>, naisten_lkm_20_24 <dbl>, naisten_lkm_25_29 <dbl>,
## #   naisten_lkm_30_34 <dbl>, naisten_lkm_35_39 <dbl>, naisten_lkm_40_45 <dbl>,
## #   naisten_lkm_45_49 <dbl>, naisten_lkm_15_49 <dbl>, naisten_lkm_24_39 <dbl>,
## #   pienituloisuus_0_17 <dbl>, pienituloisuus_18_24 <dbl>,
## #   pienituloisuus_25_34 <dbl>, pienituloisuus_35_49 <dbl>, …
…
