Syntyvyysennuste 2023-2030
…
Aineiston perusteella ei voi tehdä kausaalisia päätelmiä, ainostaan
assosiatiivisuutta koskevia. Tämä tietenkin rajoittaa
tulkintamahdollisuuksia.

Tarkoituksena on avoimen, toistettavan tutkimuksen hengessä näyttää
täsmällisesti mitä on tehty. Tästä syystä alkuperäinen aineisto (myös
tämä työkirja koodeineen, Rmd-muotoisena; data Rdata-muodossa) on
kokonaisuudessaan saatavissa osoitteesta https://github.com/ajtanskanen/Syntyvyyden-tekij-t

## # A tibble: 42 × 81
##     ...1 vuosi syntyne…¹ hedel…² tfr_lin tyoll…³ tyoll…⁴ naist…⁵ naist…⁶ naist…⁷
##    <dbl> <dbl>     <dbl>   <dbl>   <dbl>   <dbl>   <dbl>   <dbl>   <dbl>   <dbl>
##  1     1  1989     63348    1.71    1.71    53.7    51.8  147356  173374  184782
##  2     2  1990     65549    1.79    1.79    52      52.2  148164  168569  184294
##  3     3  1991     65395    1.8     1.8     43      45.8  150913  163200  184131
##  4     4  1992     66731    1.85    1.85    33.9    37.2  154803  156320  183184
##  5     5  1993     64826    1.81    1.81    29.3    30.8  159168  149669  180528
##  6     6  1994     65231    1.85    1.85    27.3    28.5  160375  148349  175246
##  7     7  1995     63067    1.81    1.81    29.9    28.3  160110  149043  170085
##  8     8  1996     60723    1.76    1.76    30.2    29.3  159261  151543  164059
##  9     9  1997     59329    1.75    1.75    34      32.5  159787  155397  157061
## 10    10  1998     57108    1.71    1.71    36.1    34    161419  159511  150146
## # … with 32 more rows, 71 more variables: naisten_lkm_30_34 <dbl>,
## #   naisten_lkm_35_39 <dbl>, naisten_lkm_40_45 <dbl>, naisten_lkm_45_49 <dbl>,
## #   naisten_lkm_15_49 <dbl>, naisten_lkm_24_39 <dbl>,
## #   pienituloisuus_0_17 <dbl>, pienituloisuus_18_24 <dbl>,
## #   pienituloisuus_25_34 <dbl>, pienituloisuus_35_49 <dbl>,
## #   pienituloisuus_50_64 <dbl>, lapsikuolleisuus <dbl>,
## #   miesten_tyottomyysaste_15_24 <dbl>, miesten_tyottomyysaste_20_64 <dbl>, …
…
