Sosiaalisen median aktiivikäyttö ja syntyvyys
…
Aineiston perusteella ei voi tehdä kausaalisia päätelmiä, ainostaan
assosiatiivisuutta koskevia. Tämä tietenkin rajoittaa
tulkintamahdollisuuksia.

Tarkoituksena on avoimen, toistettavan tutkimuksen hengessä näyttää
täsmällisesti mitä on tehty. Tästä syystä alkuperäinen aineisto (myös
tämä työkirja koodeineen, Rmd-muotoisena; data Rdata-muodossa) on
kokonaisuudessaan saatavissa osoitteesta https://github.com/ajtanskanen/Syntyvyyden-tekij-t

## # A tibble: 32 × 68
##    vuosi hedelmallisyysluku tfr_lin pienituloisuus_miehet_18_29
##    <dbl>              <dbl>   <dbl>                       <dbl>
##  1  1990               1.79    1.79                         7.9
##  2  1991               1.8     1.8                         10.9
##  3  1992               1.85    1.85                        13.5
##  4  1993               1.81    1.81                        12.7
##  5  1994               1.85    1.85                        14.2
##  6  1995               1.81    1.81                        15.9
##  7  1996               1.76    1.76                        19.3
##  8  1997               1.75    1.75                        18.2
##  9  1998               1.71    1.71                        17.9
## 10  1999               1.73    1.73                        18.2
## # ℹ 22 more rows
## # ℹ 64 more variables: pienituloisuus_naiset_18_29 <dbl>,
## #   lapsikuolleisuus <dbl>, synnyttajien_keskiika <dbl>, sisempikaupunki <dbl>,
## #   ulompikaupunki <dbl>, kehyskaupunki <dbl>, maaseudulla <dbl>,
## #   avioituvuus_naiset_30_34 <dbl>, avioituvuus_naiset_25_29 <dbl>,
## #   eronneisuus_25_29 <dbl>, eronneisuus_30_34 <dbl>,
## #   kolmasaste_miehet_25_29 <dbl>, miehet_perusaste_25_29 <dbl>, …
…
